Section8 Data Mining et Data Visualization en pratique | DATA MINING
…
Comme il reste des valeurs aberrantes (cf. section 3.2.3. de la séance 1 de ce cours) et des valeurs manquantes (objet de l’“Avis”), il faut un peu nettoyer la base, regardons plus précisément ces valeurs aberrantes en haut de la distribution :

# Pour revoir cette distribution
OffresPE_2020 %>% filter(contractType %in% c("CDD", "MIS")) %>% 
  arrange(desc(contractDuration_value)) %>% 
  select(contractType, contractDuration_value, contractDuration_period, 
         contractDuration_min, contractDuration_max, job_title, entrepriseSecteur_NAF21)

# A tibble: 92,563 × 7
   contractType contractDuration_value contractDuration_period
   <chr>                         <dbl> <chr>                  
 1 CDD                           20656 YEAR                   
 2 CDD                           20656 YEAR                   
 3 CDD                            8262 YEAR                   
 4 CDD                            8262 YEAR                   
 5 CDD                            8262 YEAR                   
 6 CDD                            8262 YEAR                   
 7 CDD                            8262 YEAR                   
 8 CDD                            8262 YEAR                   
 9 CDD                            8262 YEAR                   
10 CDD                            6656 YEAR                   
# ℹ 92,553 more rows
# ℹ 4 more variables: contractDuration_min <dbl>, contractDuration_max <dbl>,
#   job_title <chr>, entrepriseSecteur_NAF21 <chr>
…
