Section13 Clustering : application sur le RP 2019 | DATA MINING
…
# On enlève les agriculteurs, , la commune sans dénomination et les moins de 15 ans
cat_soc <- RP_final %>% 
  filter(CS1!="1" & COM!="ZZZZZ" &!AGER20 %in% c("2","5", "10","14")) %>%  
  mutate(CS_empcho = as.factor(case_when(CS1 == "2" & TACT=="11" ~ "Arti_com",
                                         CS1 == "3" & TACT=="11" ~ "Cadres",
                                         CS1 == "4" & TACT=="11" ~ "PI",
                                         CS1 == "5" & TACT=="11" ~ "Employés",
                                         CS1 == "6" & TACT=="11" ~ "Ouvriers",
                                         CS1 != "7" & TACT=="12" ~ "Chômeurs",
                                         CS1 == "7" & TACT=="21" ~ "Retraités",
                                         TRUE ~ "Autres inactifs"))) %>% 
  tab_cont_n(COM, CS_empcho, nom_var=cat_soc, var=CS_empcho, prefix_var="nb_")
cat_soc

# A tibble: 136 × 9
   COM   nb_Arti_com `nb_Autres inactifs` nb_Cadres nb_Chômeurs nb_Employés
   <chr>       <dbl>                <dbl>     <dbl>       <dbl>       <dbl>
 1 75101         828                 2249      4294         935        1268
 2 75102        1086                 2320      7056        1375        1761
 3 75103        1619                 4287     10160        2085        2617
 4 75104        1247                 4100      7793        1863        2344
 5 75105        1869                11010     15853        2611        3494
 6 75106        1788                 8296     10170        1842        2348
 7 75107        2462                 8257     12641        2165        3603
 8 75108        1801                 5559      9702        1565        2846
 9 75109        2736                 7069     19617        3478        4083
10 75110        2792                11091     24147        6343        6956
# ℹ 126 more rows
# ℹ 3 more variables: nb_Ouvriers <dbl>, nb_PI <dbl>, nb_Retraités <dbl>

On a donc 136 lignes correspondant à 136 communes de nos 4 départements, et 9 variables.

On va rajouter le nom des communes comme identifiant dans le tableau, c’est-à-dire dans le nom de la 1ère colonne, avec la fonction column_to_rownames(). Cela peut être conseillé pour la procédure de clustering, afin que chaque commune soit bien identifiée par son nom (label) ; on verra toutefois dans notre exemple que cela devient illisible si on a trop de communes/individus.

cat_soc <- cat_soc %>% column_to_rownames(var = "COM")
cat_soc

# A tibble: 136 × 8
   nb_Arti_com `nb_Autres inactifs` nb_Cadres nb_Chômeurs nb_Employés
         <dbl>                <dbl>     <dbl>       <dbl>       <dbl>
 1         828                 2249      4294         935        1268
 2        1086                 2320      7056        1375        1761
 3        1619                 4287     10160        2085        2617
 4        1247                 4100      7793        1863        2344
 5        1869                11010     15853        2611        3494
 6        1788                 8296     10170        1842        2348
 7        2462                 8257     12641        2165        3603
 8        1801                 5559      9702        1565        2846
 9        2736                 7069     19617        3478        4083
10        2792                11091     24147        6343        6956
# ℹ 126 more rows
# ℹ 3 more variables: nb_Ouvriers <dbl>, nb_PI <dbl>, nb_Retraités <dbl>
…
