Section14 Modèles de régression : application sur les offres de Pôle emploi 2020 | DATA MINING
…
(Dispersion parameter for binomial family taken to be 1)

    Null deviance: 184925  on 175751  degrees of freedom
Residual deviance: 147114  on 175720  degrees of freedom
AIC: 147178

Number of Fisher Scoring iterations: 6

# Résumé des résultats sous forme de tableau avec les odds-ratio
# avec la librairie "questionr" d'abord
#install.packages(questionr)
library(questionr)
odds.ratio(logit_VF)

# A tibble: 32 × 4
       OR `2.5 %` `97.5 %`         p
    <dbl>   <dbl>    <dbl>     <dbl>
 1 27.3    21.8     34.4   3.51e-179
 2  0.780   0.738    0.824 9.13e- 19
 3  0.918   0.866    0.974 4.77e-  3
 4  0.864   0.807    0.925 2.59e-  5
 5  0.638   0.597    0.681 5.52e- 41
 6  0.548   0.517    0.580 1.16e- 93
 7  0.598   0.566    0.633 9.48e- 72
 8  0.779   0.734    0.826 1.24e- 16
 9  0.968   0.913    1.03  2.68e-  1
10  1.04    0.982    1.10  1.82e-  1
# ℹ 22 more rows
…
